{
    "19720_19721_19726_19728":{
        "platform_config":{
            "sensor_arch":"qcom_sensor_see"
        },
        "sensor_config":{
            "android.sensor.accelerometer":{
                "type":1,
                "support":"true",
                "module":"bmi160",
                "bmi160":{
                    "mode":"batch_cali|factory_cali",
                    "offset_x": 0.0,
                    "offset_y": 0.0,
                    "offset_z": 0.0
                }
            },
            "android.sensor.magnetic_field":{
                "type":2,
                "support":"true",
                "module":"ak0991x",
                "ak0991x":{
                    "mode":"batch_cali"
                }
            },
            "android.sensor.gyroscope":{
                "type":4,
                "support":"true",
                "module":"bmi160",
                "bmi160":{
                    "mode":"batch_cali|factory_cali",
                    "radian_threshold":0.05,
                    "offset_x": 0.0,
                    "offset_y": 0.0,
                    "offset_z": 0.0
                }
            },

            "android.sensor.light":{
                "type":5,
                "support":"true",
                "module":"stk_stk3a5x",
                "stk_stk3a5x":{
                    "mode":"factory_cali",
                    "cali_para": 1000
                }
            },

            "android.sensor.proximity":{
                "type":8,
                "support":"true",
                "module":"stk_stk3a5x",
                "stk_stk3a5x":{
                    "mode":"ignore_mean|micro_gap|factory_cali",
                    "delta_threshold":150,
                    "ps0_offset": 0,
                    "ps0_distance_delta": 110,
                    "ps1_offset": 0,
                    "ps1_distance_delta": 0
                }
            },
            "android.sensor.step_counter":{
                "type":19,
                "support":"true",
                "module":"module_ignore",
                "module_ignore":{
                    "mode":"virtual_sensor"
                }
            },
            "qti.sensor.sensor_logger":{
                "type":33171024,
                "support":"true",
                "module":"module_ignore"
            }
        }
    }
}
